{"page":1,"total_results":424,"total_pages":22,"results":[{"vote_count":716,"id":2289,"video":false,"vote_average":6.8,"title":"Cold Mountain","popularity":9.765827,"poster_path":"\/4da24dJQZSGep4FJ2U9jU9G8qJr.jpg","original_language":"en","original_title":"Cold Mountain","genre_ids":[12,18,36,10749],"backdrop_path":"\/tLDljWDR3Rz3zrtxHGWlVQI8UCI.jpg","adult":false,"overview":"In this classic story of love and devotion set against the backdrop of the American Civil War, a wounded Confederate soldier named W.P. Inman deserts his unit and travels across the South, aiming to return to his young wife, Ada, who he left behind to tend their farm. As Inman makes his perilous journey home, Ada struggles to keep their home intact with the assistance of Ruby, a mysterious drifter sent to help her by a kindly neighbor.","release_date":"2003-12-24"},{"vote_count":71,"id":428399,"video":false,"vote_average":5.7,"title":"Cold Skin","popularity":9.398718,"poster_path":"\/4NXJIZTq4v3KyqfZ8ONIz0PQeVU.jpg","original_language":"en","original_title":"Cold Skin","genre_ids":[53,878,27],"backdrop_path":"\/tsVW40fOPvFeyiJAfQaxncH5nhG.jpg","adult":false,"overview":"A young man who arrives at a remote island finds himself trapped in a battle for his life.","release_date":"2017-10-20"},{"vote_count":15,"id":437463,"video":false,"vote_average":4.2,"title":"Cold Zone","popularity":6.449546,"poster_path":"\/95pOaHjhOhQENDaK0fvzsSCQHDC.jpg","original_language":"en","original_title":"Cold Zone","genre_ids":[28,878,12],"backdrop_path":"\/sh4rXuam1Gd9lriKbDOKMw9p1Ti.jpg","adult":false,"overview":"A storm is coming. No one could predict it. No one can measure it. Now one family must survive it. You can't come in from the cold.","release_date":"2017-05-16"},{"vote_count":45,"id":21338,"video":false,"vote_average":6,"title":"Stone Cold","popularity":6.201599,"poster_path":"\/8933l0H7F5QZCRTxOnMGj0t89yp.jpg","original_language":"en","original_title":"Stone Cold","genre_ids":[28,80,53],"backdrop_path":"\/4nV0kSGGLDOUTRaGjhAbF8gU2Ze.jpg","adult":false,"overview":"Joe Huff (Brian Bosworth) is a tough, loner cop with a flair for infiltrating dangerous biker gangs. The FBI blackmail Joe into an undercover operation that entails infiltrating \"The Brotherhood\" - a powerful Mississippi biker gang linked in the murder of government officials as well as dealing drugs with the mafia.","release_date":"1991-05-17"},{"vote_count":65,"id":14369,"video":false,"vote_average":5.8,"title":"Out Cold","popularity":6.093751,"poster_path":"\/yfxBwGvhzD9JQYGAglwN7bwr1Hz.jpg","original_language":"en","original_title":"Out Cold","genre_ids":[35],"backdrop_path":"\/6XcO8FLSLHULuATwQGQfryBo7KU.jpg","adult":false,"overview":"Animal House meets Casablanca in this outrageous snowboarding comedy. Rick Rambis and his friends are having the time of their lives on Bull Mountain until the legendary Papa Muntz' son decides to sell the mountain to sleazy land developer John Majors, having the staff fired and turning Bull Mountain into 'Yuppieville'.","release_date":"2001-11-21"},{"vote_count":0,"id":389525,"video":false,"vote_average":0,"title":"Cold","popularity":1.311556,"poster_path":"\/u3rqppg14DydyjcW8FLhonGtnI7.jpg","original_language":"pl","original_title":"Katar","genre_ids":[10402,16,35],"backdrop_path":null,"adult":false,"overview":"A little girl's cold spreads all over town in this short pop-art styled animation.","release_date":"1984-01-01"},{"vote_count":60,"id":30250,"video":false,"vote_average":6.2,"title":"Cold Souls","popularity":4.632251,"poster_path":"\/4ejJjTwoEqIKiZJOyPaHlTJh2jL.jpg","original_language":"en","original_title":"Cold Souls","genre_ids":[35,18,14,878],"backdrop_path":"\/rkjHcaUv2AFeARO8IpVKXYg4Eos.jpg","adult":false,"overview":"Paul Giamatti stars as himself, agonizing over his interpretation of \"Uncle Vanya.\" Paralyzed by anxiety, he stumbles upon a solution via a New Yorker article about a high-tech company promising to alleviate suffering by extracting souls. Giamatti enlists their service -- only to discover that his soul is the shape and size of a chickpea.","release_date":"2009-08-07"},{"vote_count":323,"id":244509,"video":false,"vote_average":6.4,"title":"Cold in July","popularity":8.672371,"poster_path":"\/zotsAuntzSFECpDWfkIWePcIJOq.jpg","original_language":"en","original_title":"Cold in July","genre_ids":[18,53],"backdrop_path":"\/61ZE6IO8gbkFmyAw6DBQfXWsK2w.jpg","adult":false,"overview":"How can a split-second decision change your life? While investigating noises in his house one balmy Texas night in 1989, Richard Dane puts a bullet in the brain of low-life burglar Freddy Russell. Although he’s hailed as a small-town hero, Dane soon finds himself fearing for his family’s safety when Freddy’s ex-con father, Ben, rolls into town, hell-bent on revenge.","release_date":"2014-05-23"},{"vote_count":44,"id":31046,"video":false,"vote_average":6.7,"title":"Jesse Stone: Stone Cold","popularity":4.170679,"poster_path":"\/wxxHABj5UsqA7yMAaSe1R3UWK7K.jpg","original_language":"en","original_title":"Stone Cold","genre_ids":[10770,80,18,53],"backdrop_path":"\/hzhvjWY7l8iesSVQSV8BUCCY8Tk.jpg","adult":false,"overview":"Jesse Stone is a former L.A. homicide detective who left behind the big city and an ex-wife to become the police chief of the quiet New England fishing town of Paradise. Stone's old habits die hard as he continues to indulge his two favorite things--scotch and women. When a series of murders takes place and a high school girl is raped, he's forced to face his own demons in order to solve the crimes. And, since these are the first murders to occur in Paradise, Jesse must also train his inexperienced staff of police officers to assist in the investigation to find the killers and the rapist before they can strike again.","release_date":"2005-02-20"},{"vote_count":109,"id":210047,"video":false,"vote_average":5.4,"title":"Cold Comes the Night","popularity":6.945333,"poster_path":"\/ceMpKE2i65abAG0lVi8J9vdcCuR.jpg","original_language":"en","original_title":"Cold Comes the Night","genre_ids":[80,18,53],"backdrop_path":"\/lXmY4Q64qTFkLpUjG6SzdsLerwF.jpg","adult":false,"overview":"A struggling motel owner and her daughter are taken hostage by a nearly blind career criminal to be his eyes as he attempts to retrieve his cash package from a crooked cop.","release_date":"2013-09-20"},{"vote_count":159,"id":12767,"video":false,"vote_average":4.9,"title":"Cold Creek Manor","popularity":6.755038,"poster_path":"\/yIfGja2k9UCOm1ed8yiz9VKaJsE.jpg","original_language":"en","original_title":"Cold Creek Manor","genre_ids":[9648,53],"backdrop_path":"\/9qxHm4VTbndb6grVsSXMZrfNfFV.jpg","adult":false,"overview":"Wanting to escape city life for the countryside, New Yorkers Cooper Tilson (Quaid), his wife Leah (Stone) and their two children move into a dilapidated old mansion still filled with the possessions of the previous family. Turning it into their dream house soon becomes a living nightmare when the previous owner (Dorff) shows up, and a series of terrifying incidents lead them on a spine-tingling search for clues to the estate's dark and lurid past","release_date":"2003-09-19"},{"vote_count":111,"id":18900,"video":false,"vote_average":7.8,"title":"In Cold Blood","popularity":6.507056,"poster_path":"\/t5wnOmnrsp3T2zImTsArJe84Gt9.jpg","original_language":"en","original_title":"In Cold Blood","genre_ids":[80,18],"backdrop_path":"\/erLlJmxYBEk0SWeh8ddAMNRxvfT.jpg","adult":false,"overview":"A 1967 film based on Truman Capote's book of the same name. After a botched robbery results in the brutal murder of a rural family, two drifters elude police, in the end coming to terms with their own mortality and the repercussions of their vile atrocity.","release_date":"1967-12-14"},{"vote_count":2,"id":482650,"video":false,"vote_average":5.5,"title":"Cold November","popularity":3.595945,"poster_path":"\/zbwYd2uujOJ4EGxt67Veg0E4Gde.jpg","original_language":"en","original_title":"Cold November","genre_ids":[18,10751,53],"backdrop_path":"\/rkyZQedCsCLv10GW1UPqsZwZqIU.jpg","adult":false,"overview":"On the cusp of womanhood, 12-year-old Florence goes on her first deer hunt, a traditional rite-of- passage in her matriarchal family.","release_date":"2018-03-23"},{"vote_count":367,"id":77948,"video":false,"vote_average":5,"title":"The Cold Light of Day","popularity":9.496888,"poster_path":"\/zXhphNKS56VQbVJXqk3OMrjtNNc.jpg","original_language":"en","original_title":"The Cold Light of Day","genre_ids":[28,53,9648],"backdrop_path":"\/dFOC8NGMkKPZr9ic2hMo1nJOuzZ.jpg","adult":false,"overview":"After his family is kidnapped during their sailing trip in Spain, a young Wall Street trader is confronted by the people responsible: intelligence agents looking to recover a mysterious briefcase.","release_date":"2012-04-04"},{"vote_count":1,"id":81776,"video":false,"vote_average":5,"title":"Cold","popularity":1.059395,"poster_path":"\/gt4fhYMzbmoXHmEB1UxmWmhzaDd.jpg","original_language":"en","original_title":"Cold","genre_ids":[12,99],"backdrop_path":"\/ywcSRMZYZW44mlskOf0JAgNPsol.jpg","adult":false,"overview":"For the past 26 years 16 expeditions have tried and failed to climb one of Pakistan's 8,000 meter peaks in winter. On February 2, 2011, Simone Moro, Denis Urubko and Cory Richards became the first. Cory is now the only American to summit any 8,000 meter peak in winter. The journey nearly killed them. Cory carried a small camera and filmed the ordeal constantly. This is their story, as seen from the raw, honest perspective of Cory's lens.","release_date":"2011-12-08"},{"vote_count":74,"id":204553,"video":false,"vote_average":7.2,"title":"Cold Eyes","popularity":5.940059,"poster_path":"\/xh34tAT1hlI7kp29vhZHAjdDIQG.jpg","original_language":"ko","original_title":"감시자들","genre_ids":[80,28],"backdrop_path":"\/jFxliVMha8XSKjgmFWbKAjzGukX.jpg","adult":false,"overview":"HA Yoon-ju becomes the newest member to a unit within the Korean Police Forces Special Crime Department that specializes in surveillance activities on high profile criminals. She teams up with HWANG Sang-Jun, the veteran leader of the unit, and tries to track down James who is the cold-hearted leader of an armed criminal organization.","release_date":"2013-07-03"},{"vote_count":0,"id":320693,"video":false,"vote_average":0,"title":"Cold","popularity":1.040298,"poster_path":"\/gCu04z6JhWgITgNsYA3WVHrsv8f.jpg","original_language":"ja","original_title":"風邪","genre_ids":[],"backdrop_path":null,"adult":false,"overview":"Genius scientist Kikuo Himura (Yosuke Kubozuka) succeeds in developing a miracle cure for the cold virus. There are now people who are after Kikuo Himura's cold vaccine. Doctor Ichinose (Akira Emoto) is jealous of Kikuo Himura and tries to get the formula which is only in Kikuo Himura's head. Dougen (Chris Peppler) is a high-ranking member of a secret organization. Him and his subordinate try to get the vaccine source by any means necessary. Meanwhile, a mysterious woman, Sakurako (Manami Konishi) approaches Kikuo Himura.","release_date":"2014-09-27"},{"vote_count":0,"id":523818,"video":false,"vote_average":0,"title":"The Cold Blue","popularity":3.919888,"poster_path":"\/z5TYwmYGK0BKhE0iWjmSnCdD6Pe.jpg","original_language":"en","original_title":"The Cold Blue","genre_ids":[],"backdrop_path":null,"adult":false,"overview":"In 1943, legendary Hollywood director William Wyler crafted MEMPHIS BELLE, a celebrated tribute to the titular WWII bomber.  Using footage shot by Wyler from the National Archives, director Erik Nelson has made a new film, featuring gripping narration from some of the last surviving B-17 pilots.  A meditation on youth, war and stunning bravery.","release_date":"2018-06-14"},{"vote_count":12,"id":42358,"video":false,"vote_average":5.2,"title":"Cold Sweat","popularity":3.122374,"poster_path":"\/19mhRuiZ19eygOm1n810Yk2GA9s.jpg","original_language":"en","original_title":"Cold Sweat","genre_ids":[53,28],"backdrop_path":"\/6e7V2V1swO0e7AEhwuSn6wM9m3V.jpg","adult":false,"overview":"During the Korean War, Joe Moran, is convicted for striking a colonel. Imprisoned in Germany he encounters his former company commander Captain Ross, jailed for black marketeering. Together with Ross' cohorts Joe agrees to escape with them, but things go wrong and a policeman is killed. An appalled Joe escapes by himself, abandoning the others, who are recaptured. Years later Joe has a boat rental business where he is found by Ross. Now a wanted drug smuggler he wants the use of Joe's boats and to ensure his cooperation, they kidnap his wife and daughter.","release_date":"1970-12-18"},{"vote_count":17,"id":55934,"video":false,"vote_average":6.2,"title":"Cold Weather","popularity":3.018917,"poster_path":"\/veV9i4eEeUKvZOyHWrkjwiVIQtp.jpg","original_language":"en","original_title":"Cold Weather","genre_ids":[9648,18,35,53],"backdrop_path":"\/eeUxTgnKt8ZD6V0AFU6eFN1dd7g.jpg","adult":false,"overview":"A guy who moves back to Portland, Oregon becomes involved in the mystery of his ex-girlfriend's disappearance.","release_date":"2010-03-13"}]}
